{
	"parallelAllSites": false,
	"sitesOrder": [["site1"], ["site2", "site3"]],
	"siteConfigs": {
		"site1": {
			"tmpRouteDomain": "cw-vdr-labs1.elpaaso.net"
		},
		"site2": {
			"tmpRouteDomain": "cw-vdr-labs2.elpaaso.net"
		},
		"site3": {
			"tmpRouteDomain": "cw-vdr-labs3.elpaaso.net"
		}
	}
}
