{
	"sites": {
		"site3": {
			"siteAccess":{
				"name": "site3",
				"type": "CloudFoundry",
				"api": "api.cw-vdr-labs3.elpaaso.net",
				"user": "itao",
				"pwd": "TMPpwd",
				"org": "lizard",
				"space": "prod",
				"skipSslValidation": true
			},
			"microservices": []
		},
		"site1": {
			"siteAccess":{
				"name": "site1",
				"type": "CloudFoundry",
				"api": "api.cw-vdr-labs1.elpaaso.net",
				"user": "itao",
				"pwd": "TMPpwd",
				"org": "lizard",
				"space": "prod",
				"skipSslValidation": true
			},
			"microservices": []
		},
		"site2": {
			"siteAccess":{
				"name": "site2",
				"type": "CloudFoundry",
				"api": "api.cw-vdr-labs2.elpaaso.net",
				"user": "itao",
				"pwd": "TMPpwd",
				"org": "lizard",
				"space": "prod",
				"skipSslValidation": true
			},
			"microservices": []
		}
	}
}
