{
  "sites": {
    "site3": {
      "siteAccess": {
        "name": "site3",
        "type": "CloudFoundry",
        "api": "api.cw-vdr-labs3.elpaaso.net",
        "user": "itao",
        "pwd": "TMPpwd",
        "org": "lizard",
        "space": "prod",
        "skipSslValidation": true
      },
      "microservices": [
        {
          "attributes": {
            "name": "eligibility",
            "version": "v1.0.0",
            "path": "lizard-eligibility-service_1.0.0.jar",
            "state": "RUNNING",
            "nbProcesses": 3,
            "memory": 1024,
            "disk": 1024,
            "env": {
              "SPRING_CLOUD_CONFIG_SERVER_GIT_URI": "https://gitlab.com/xxtao/lizard-config-old.git",
              "SPRING_CLOUD_CONFIG_LABEL": "master",
              "SPRING_PROFILES_ACTIVE": "cloud",
              "EUREKA_INSTANCE_METADATA_MAP_ZONE": "cloud-foundry-3"
            },
            "routes": [
              "lizard-eligibility.cw-vdr-labs3.elpaaso.net"
            ],
            "services": [
              "lizard-eureka-service",
              "lizard-zipkin-service"
            ]
          }
        },
        {
          "attributes": {
            "name": "catalog",
            "version": "v1.0.0",
            "path": "lizard-catalog-service_1.0.0.jar",
            "state": "RUNNING",
            "nbProcesses": 3,
            "memory": 1024,
            "disk": 1024,
            "env": {
              "EUREKA_INSTANCE_METADATA_MAP_ZONE": "cloud-foundry-3"
            },
            "routes": [
              "lizard-catalog.cw-vdr-labs3.elpaaso.net"
            ],
            "services": [
              "lizard-eureka-service",
              "lizard-zipkin-service"
            ]
          }
        }
      ]
    },
    "site1": {
      "siteAccess": {
        "name": "site1",
        "type": "CloudFoundry",
        "api": "api.cw-vdr-labs1.elpaaso.net",
        "user": "itao",
        "pwd": "TMPpwd",
        "org": "lizard",
        "space": "prod",
        "skipSslValidation": true
      },
      "microservices": [
        {
          "attributes": {
            "name": "catalog",
            "version": "v1.0.0",
            "path": "lizard-catalog-service_1.0.0.jar",
            "state": "RUNNING",
            "nbProcesses": 3,
            "memory": 1024,
            "disk": 1024,
            "env": {
              "EUREKA_INSTANCE_METADATA_MAP_ZONE": "cloud-foundry-1"
            },
            "routes": [
              "lizard-catalog.cw-vdr-labs1.elpaaso.net"
            ],
            "services": [
              "lizard-eureka-service",
              "lizard-zipkin-service"
            ]
          }
        },
        {
          "attributes": {
            "name": "eligibility",
            "version": "v1.0.0",
            "path": "lizard-eligibility-service_1.0.0.jar",
            "state": "RUNNING",
            "nbProcesses": 3,
            "memory": 1024,
            "disk": 1024,
            "env": {
              "SPRING_CLOUD_CONFIG_SERVER_GIT_URI": "https://gitlab.com/xxtao/lizard-config-old.git",
              "SPRING_CLOUD_CONFIG_LABEL": "master",
              "SPRING_PROFILES_ACTIVE": "cloud",
              "EUREKA_INSTANCE_METADATA_MAP_ZONE": "cloud-foundry-1"
            },
            "routes": [
              "lizard-eligibility.cw-vdr-labs1.elpaaso.net"
            ],
            "services": [
              "lizard-eureka-service",
              "lizard-zipkin-service"
            ]
          }
        }
      ]
    },
    "site2": {
      "siteAccess": {
        "name": "site2",
        "type": "CloudFoundry",
        "api": "api.cw-vdr-labs2.elpaaso.net",
        "user": "itao",
        "pwd": "TMPpwd",
        "org": "lizard",
        "space": "prod",
        "skipSslValidation": true
      },
      "microservices": [
        {
          "attributes": {
            "name": "catalog",
            "version": "v1.0.0",
            "path": "lizard-catalog-service_1.0.0.jar",
            "state": "RUNNING",
            "nbProcesses": 3,
            "memory": 1024,
            "disk": 1024,
            "env": {
              "EUREKA_INSTANCE_METADATA_MAP_ZONE": "cloud-foundry-2"
            },
            "routes": [
              "lizard-catalog.cw-vdr-labs2.elpaaso.net"
            ],
            "services": [
              "lizard-eureka-service",
              "lizard-zipkin-service"
            ]
          }
        },
        {
          "attributes": {
            "name": "eligibility",
            "version": "v1.0.0",
            "path": "lizard-eligibility-service_1.0.0.jar",
            "state": "RUNNING",
            "nbProcesses": 3,
            "memory": 1024,
            "disk": 1024,
            "env": {
              "SPRING_CLOUD_CONFIG_SERVER_GIT_URI": "https://gitlab.com/xxtao/lizard-config-old.git",
              "SPRING_CLOUD_CONFIG_LABEL": "master",
              "SPRING_PROFILES_ACTIVE": "cloud",
              "EUREKA_INSTANCE_METADATA_MAP_ZONE": "cloud-foundry-2"
            },
            "routes": [
              "lizard-eligibility.cw-vdr-labs2.elpaaso.net"
            ],
            "services": [
              "lizard-eureka-service",
              "lizard-zipkin-service"
            ]
          }
        }
      ]
    }
  }
}
