{
	"sites": {
		"site1": {
			"siteAccess":{
				"name": "site1",
				"type": "CloudFoundry",
				"api": "api.cw-vdr-labs1.elpaaso.net",
				"user": "accountMgr",
				"pwd": "TMPpwd",
				"org": "account",
				"space": "prod",
				"skipSslValidation": true
			},
			"microservices": []
		}
	}
}