[{
		"name": "site1",
		"type": "CloudFoundry",
		"api": "api.cw-vdr-labs1.elpaaso.net",
		"user": "accountMgr",
		"pwd": "TMPpwd",
		"org": "account",
		"space": "prod",
		"skipSslValidation": true
	}, {
		"name": "site2",
		"type": "CloudFoundry",
		"api": "api.cw-vdr-labs2.elpaaso.net",
		"user": "accountMgr",
		"pwd": "TMPpwd",
		"org": "account",
		"space": "prod",
		"skipSslValidation": true
	}, {
		"name": "site3",
		"type": "CloudFoundry",
		"api": "api.cw-vdr-labs3.elpaaso.net",
		"user": "accountMgr",
		"pwd": "TMPpwd",
		"org": "account",
		"space": "prod",
		"skipSslValidation": true
	}
]
