{
  "name": "lizard-site1",
  "version": "2.0.0",
  "description": "lizard site1 deployment manifest for push2cloud",
  "target": {
    "type": "cloudfoundry",
    "api": "http://api.cw-vdr-labs1.elpaaso.net",
    "space": "prod",
    "org": "lizard",
    "delay": 500,
    "maxRetries": 3,
    "rejectUnauthorized": false
  },
  "release": {
    "name": "lizard",
    "source": {
      "type": "git",
      "url": "https://gitlab.com/x_tao/lizard.git",
      "referenceValue": "master"
    },
    "manifest": "release.json"
  },
  "secureAppConnections": false,
  "domains": {
    "public": "cw-vdr-labs1.elpaaso.net",
    "internal": "cw-vdr-labs1.elpaaso.net"
  },
  "applicationDefaults": {
    "memory": "1G",
    "disk": "1G",
    "instances": 1,
    "startTimeout": 600,
    "stageTimeout": 600,
    "gracePeriod": 20,
    "buildpack": "https://github.com/cloudfoundry/java-buildpack.git",
    "env": {
      "EUREKA_INSTANCE_METADATA_MAP_ZONE": "cloud-foundry-1"
    }
  },
  "apps": {
    "catalog": {
      "routes": {
        "public": [
          "lizard-${appname}"
        ]
      }
    },
    "eligibility": {
      "routes": {
        "public": [
          "lizard-${appname}"
        ]
      }
    }
  }
}